აქ ემატება package.json-ში version 1.0.3
dependencies: {
     "autolinker": "^3.1.0",
    "msgdown": "^1.0.2",
    "emoji-js": "^3.4.1",
    "v-tooltip": "^2.0.2",
    "socket.io-client": "^2.2.0",

    "vue-i18n": "^8.0.0",
    "node-sass": "^4.11.0",
    "sass-loader": "^6.0.7",            
    "moment": "^2.24.0",   
    "vee-validate": "^2.2.8",    
    "vuex": "^3.1.0",
    "vuex-persistedstate": "^2.5.4"
  }